{
    "count": 1118,
    "next": "https://pokeapi.co/api/v2/pokemon?offset=898&limit=33",
    "previous": "https://pokeapi.co/api/v2/pokemon?offset=832&limit=33",
    "results": [
        {
            "name": "mr-rime",
            "url": "https://pokeapi.co/api/v2/pokemon/866/"
        },
        {
            "name": "runerigus",
            "url": "https://pokeapi.co/api/v2/pokemon/867/"
        },
        {
            "name": "milcery",
            "url": "https://pokeapi.co/api/v2/pokemon/868/"
        },
        {
            "name": "alcremie",
            "url": "https://pokeapi.co/api/v2/pokemon/869/"
        },
        {
            "name": "falinks",
            "url": "https://pokeapi.co/api/v2/pokemon/870/"
        },
        {
            "name": "pincurchin",
            "url": "https://pokeapi.co/api/v2/pokemon/871/"
        },
        {
            "name": "snom",
            "url": "https://pokeapi.co/api/v2/pokemon/872/"
        },
        {
            "name": "frosmoth",
            "url": "https://pokeapi.co/api/v2/pokemon/873/"
        },
        {
            "name": "stonjourner",
            "url": "https://pokeapi.co/api/v2/pokemon/874/"
        },
        {
            "name": "eiscue-ice",
            "url": "https://pokeapi.co/api/v2/pokemon/875/"
        },
        {
            "name": "indeedee-male",
            "url": "https://pokeapi.co/api/v2/pokemon/876/"
        },
        {
            "name": "morpeko",
            "url": "https://pokeapi.co/api/v2/pokemon/877/"
        },
        {
            "name": "cufant",
            "url": "https://pokeapi.co/api/v2/pokemon/878/"
        },
        {
            "name": "copperajah",
            "url": "https://pokeapi.co/api/v2/pokemon/879/"
        },
        {
            "name": "dracozolt",
            "url": "https://pokeapi.co/api/v2/pokemon/880/"
        },
        {
            "name": "arctozolt",
            "url": "https://pokeapi.co/api/v2/pokemon/881/"
        },
        {
            "name": "dracovish",
            "url": "https://pokeapi.co/api/v2/pokemon/882/"
        },
        {
            "name": "arctovish",
            "url": "https://pokeapi.co/api/v2/pokemon/883/"
        },
        {
            "name": "duraludon",
            "url": "https://pokeapi.co/api/v2/pokemon/884/"
        },
        {
            "name": "dreepy",
            "url": "https://pokeapi.co/api/v2/pokemon/885/"
        },
        {
            "name": "drakloak",
            "url": "https://pokeapi.co/api/v2/pokemon/886/"
        },
        {
            "name": "dragapult",
            "url": "https://pokeapi.co/api/v2/pokemon/887/"
        },
        {
            "name": "zacian-hero",
            "url": "https://pokeapi.co/api/v2/pokemon/888/"
        },
        {
            "name": "zamazenta-hero",
            "url": "https://pokeapi.co/api/v2/pokemon/889/"
        },
        {
            "name": "eternatus",
            "url": "https://pokeapi.co/api/v2/pokemon/890/"
        },
        {
            "name": "kubfu",
            "url": "https://pokeapi.co/api/v2/pokemon/891/"
        },
        {
            "name": "urshifu-single-strike",
            "url": "https://pokeapi.co/api/v2/pokemon/892/"
        },
        {
            "name": "zarude",
            "url": "https://pokeapi.co/api/v2/pokemon/893/"
        },
        {
            "name": "regieleki",
            "url": "https://pokeapi.co/api/v2/pokemon/894/"
        },
        {
            "name": "regidrago",
            "url": "https://pokeapi.co/api/v2/pokemon/895/"
        },
        {
            "name": "glastrier",
            "url": "https://pokeapi.co/api/v2/pokemon/896/"
        },
        {
            "name": "spectrier",
            "url": "https://pokeapi.co/api/v2/pokemon/897/"
        },
        {
            "name": "calyrex",
            "url": "https://pokeapi.co/api/v2/pokemon/898/"
        }
    ]
}